%YAML 1.1
%TAG !u! tag:unity3d.com,2011:
--- !u!114 &11400000
MonoBehaviour:
  m_ObjectHideFlags: 0
  m_PrefabParentObject: {fileID: 0}
  m_PrefabInternal: {fileID: 0}
  m_GameObject: {fileID: 0}
  m_Enabled: 1
  m_EditorHideFlags: 0
  m_Script: {fileID: 11500000, guid: 5d2e1a8fe05354d2ebe0ce7b9bd09384, type: 3}
  m_Name: Introduction
  m_EditorClassIdentifier: 
  order: 1
  vuforiaKey: 6
  NextPoster: {fileID: 0}
  Lines:
  - {fileID: 11400000, guid: 26f44c268a7ca47278c706ca243e02e5, type: 2}
  - {fileID: 11400000, guid: fc1f7349836e44ea08eab65876fa16ae, type: 2}
  - {fileID: 11400000, guid: 8027dcb108c7748a69b8ca340d28546a, type: 2}
  - {fileID: 11400000, guid: 2bf4148807c3e4e8b927877385f1967f, type: 2}
  - {fileID: 11400000, guid: d4bd4e95add684f52a5615d632b9de7b, type: 2}
  - {fileID: 11400000, guid: 80e1b0e421fcd464095c5b3ba105ee4a, type: 2}
  - {fileID: 11400000, guid: 9a1e2d4708b764b52b66a543fd3607b3, type: 2}
  - {fileID: 11400000, guid: d55a8a8298b792346a912caedbf66842, type: 2}
  OwlBotLocation: {fileID: 0}
  NewDialogueFilename: '{0}/{1}_{2}.asset'
  NewDialogueDirectory: Assets/ScriptableObjects/Lines
