%YAML 1.1
%TAG !u! tag:unity3d.com,2011:
--- !u!114 &11400000
MonoBehaviour:
  m_ObjectHideFlags: 0
  m_PrefabParentObject: {fileID: 0}
  m_PrefabInternal: {fileID: 0}
  m_GameObject: {fileID: 0}
  m_Enabled: 1
  m_EditorHideFlags: 0
  m_Script: {fileID: 11500000, guid: 5d2e1a8fe05354d2ebe0ce7b9bd09384, type: 3}
  m_Name: Study And Learning Centre
  m_EditorClassIdentifier: 
  order: 2
  vuforiaKey: 12
  NextPoster: {fileID: 0}
  Lines:
  - {fileID: 11400000, guid: 53f7bc9c86a634831b762fa64f2d7fce, type: 2}
  - {fileID: 11400000, guid: 1ebe429132f2845589973bb39d5d4e9c, type: 2}
  - {fileID: 11400000, guid: dc7361f1a024b4908b666b8270bfca51, type: 2}
  - {fileID: 11400000, guid: 1418701361bd6481d96dbe6684bbab41, type: 2}
  - {fileID: 11400000, guid: d24de998974ea4efc835f0e25fc75b63, type: 2}
  - {fileID: 11400000, guid: 3ea6dfd701f19a34aa376ca0c7409504, type: 2}
  OwlBotLocation: {fileID: 0}
  NewDialogueFilename: '{0}/{1}_{2}.asset'
  NewDialogueDirectory: Assets/ScriptableObjects/Lines
