<?xml version="1.0" encoding="utf-8"?>
<!-- Generator: Adobe Illustrator 21.1.0, SVG Export Plug-In . SVG Version: 6.00 Build 0)  -->
<svg version="1.1" xmlns="http://www.w3.org/2000/svg" xmlns:xlink="http://www.w3.org/1999/xlink" x="0px" y="0px"
	 viewBox="0 0 841.9 1190.6" style="enable-background:new 0 0 841.9 1190.6;" xml:space="preserve">
<g id="VuMark-UserData">
</g>
<g id="VuMark-ClearSpace">
	<g>
		<rect style="fill:#1F2248;" width="841.9" height="1190.6"/>
	</g>
</g>
<g id="VuMark-Background">
	<g>
		<rect x="91.813" y="106.233" style="fill:#64C7F3;" width="657.615" height="970.313"/>
	</g>
</g>
<g id="VuMark-DarkElements">
	<g id="d0022_3_">
		<polygon style="fill:#1F2248;" points="278.425,196.804 333.217,163.801 333.217,106.431 322.258,106.431 322.258,157.2 
			278.425,183.603 234.591,157.2 234.591,106.431 223.633,106.431 223.633,163.801 		"/>
	</g>
	<g id="d0030" style="display:none;">
		<polygon style="display:inline;fill:#1F2248;" points="751.779,290.179 707.836,263.776 707.836,210.97 751.779,184.567 
			751.779,171.366 696.987,204.369 696.987,270.377 751.779,303.38 751.779,303.38 751.779,290.179 		"/>
	</g>
	<g id="d0001" style="display:none;">
		<polygon style="display:inline;fill:#1F2248;" points="156.449,986.039 101.657,1019.042 101.657,1076.866 112.616,1076.866 
			112.616,1025.643 156.449,999.24 200.283,1025.643 200.283,1076.866 211.241,1076.866 211.241,1019.042 		"/>
	</g>
	<g id="d0032" style="display:none;">
		<polygon style="display:inline;fill:#1F2248;" points="559.195,183.603 603.029,157.2 603.029,106.431 515.361,106.431 
			515.361,157.2 		"/>
	</g>
	<g id="d0033" style="display:none;">
		<polygon style="display:inline;fill:#1F2248;" points="681.26,183.603 725.093,157.2 725.093,106.431 637.426,106.431 
			637.426,157.2 		"/>
	</g>
	<g id="d0009" style="display:none;">
		<polygon style="display:inline;fill:#1F2248;" points="559.195,999.24 515.362,1025.643 515.362,1076.866 603.029,1076.866 
			603.029,1025.643 		"/>
	</g>
	<g id="d0007" style="display:none;">
		<polygon style="display:inline;fill:#1F2248;" points="91.813,738.129 91.813,751.33 135.646,777.733 135.646,830.539 
			91.813,856.942 91.813,870.143 146.605,837.14 146.605,771.132 		"/>
	</g>
	<g id="d0021" style="display:none;">
		<polygon style="display:inline;fill:#1F2248;" points="156.449,183.603 200.283,157.2 200.283,106.431 112.616,106.431 
			112.616,157.2 		"/>
	</g>
	<g id="d0019" style="display:none;">
		<polygon style="display:inline;fill:#1F2248;" points="91.813,318.69 91.813,331.892 135.646,358.295 135.646,411.1 
			91.813,437.503 91.813,450.705 146.605,417.701 146.605,351.694 		"/>
	</g>
	<g id="d0002_3_" style="display:none;">
		<polygon style="display:inline;fill:#1F2248;" points="278.425,986.039 223.633,1019.042 223.633,1076.866 234.591,1076.866 
			234.591,1025.643 278.425,999.24 322.258,1025.643 322.258,1076.866 333.217,1076.866 333.217,1019.042 		"/>
	</g>
	<g id="d0011" style="display:none;">
		<polygon style="display:inline;fill:#1F2248;" points="681.26,985.718 626.468,1018.722 626.468,1076.546 637.426,1076.546 
			637.426,1025.323 681.26,998.92 725.093,1025.323 725.093,1076.546 736.052,1076.546 736.052,1018.722 		"/>
	</g>
	<g id="d0013" style="display:none;">
		<polygon style="display:inline;fill:#1F2248;" points="749.614,998.128 705.671,971.725 705.671,918.919 749.615,892.517 
			749.615,879.315 694.822,912.319 694.822,978.326 749.614,1011.33 749.615,1011.33 749.615,998.128 		"/>
	</g>
	<g id="d0029">
		<polygon style="fill:#1F2248;" points="681.26,196.804 736.052,163.801 736.052,106.431 725.093,106.431 725.093,157.2 
			681.26,183.603 637.426,157.2 637.426,106.431 626.468,106.431 626.468,163.801 		"/>
	</g>
	<g id="d0028">
		<polygon style="fill:#1F2248;" points="559.195,196.804 613.987,163.801 613.987,106.431 603.029,106.431 603.029,157.2 
			559.195,183.603 515.361,157.2 515.361,106.431 504.403,106.431 504.403,163.801 		"/>
	</g>
	<g id="d0023">
		<polygon style="fill:#1F2248;" points="278.425,183.603 322.258,157.2 322.258,106.431 234.591,106.431 234.591,157.2 		"/>
	</g>
	<g id="d0031">
		<polygon style="fill:#1F2248;" points="707.836,263.776 751.779,290.179 751.779,290.179 751.779,184.567 707.836,210.97 		"/>
	</g>
	<g id="d0000">
		<polygon style="fill:#1F2248;" points="156.449,999.24 112.616,1025.643 112.616,1076.866 200.283,1076.866 200.283,1025.643 		
			"/>
	</g>
	<g id="d0008">
		<polygon style="fill:#1F2248;" points="559.195,986.039 504.403,1019.042 504.403,1076.866 515.362,1076.866 515.362,1025.643 
			559.195,999.24 603.029,1025.643 603.029,1076.866 613.987,1076.866 613.987,1019.042 		"/>
	</g>
	<g id="d0005">
		<polygon style="fill:#1F2248;" points="135.646,777.733 91.813,751.33 91.813,856.942 135.646,830.539 		"/>
	</g>
	<g id="d0020">
		<polygon style="fill:#1F2248;" points="156.449,196.804 211.241,163.801 211.241,106.431 200.283,106.431 200.283,157.2 
			156.449,183.603 112.616,157.2 112.616,106.431 101.657,106.431 101.657,163.801 		"/>
	</g>
	<g id="d0004_6_">
		<polygon style="fill:#1F2248;" points="134.924,971.725 90.981,998.128 90.981,998.128 90.981,892.517 134.924,918.919 		"/>
	</g>
	<g id="d0006">
		<polygon style="fill:#1F2248;" points="90.981,998.128 134.924,971.725 134.924,918.919 90.981,892.517 90.981,879.315 
			145.773,912.319 145.773,978.326 90.981,1011.33 90.981,1011.33 90.981,998.128 		"/>
	</g>
	<g id="d0027">
		<polygon style="fill:#1F2248;" points="705.671,411.1 749.614,437.503 749.615,437.503 749.615,331.892 705.671,358.294 		"/>
	</g>
	<g id="d0026">
		<polygon style="fill:#1F2248;" points="749.614,437.503 705.671,411.1 705.671,358.294 749.615,331.892 749.615,318.69 
			694.822,351.694 694.822,417.701 749.614,450.705 749.615,450.705 749.615,437.503 		"/>
	</g>
	<g id="d0016">
		<polygon style="fill:#1F2248;" points="134.924,263.43 90.981,289.833 90.981,289.832 90.981,184.221 134.924,210.624 		"/>
	</g>
	<g id="d0018">
		<polygon style="fill:#1F2248;" points="90.981,289.833 134.924,263.43 134.924,210.624 90.981,184.221 90.981,171.019 
			145.773,204.023 145.773,270.03 90.981,303.034 90.981,303.034 90.981,289.832 		"/>
	</g>
	<g id="d0017">
		<polygon style="fill:#1F2248;" points="135.646,358.295 91.813,331.892 91.813,437.503 135.646,411.1 		"/>
	</g>
	<g id="d0003">
		<polygon style="fill:#1F2248;" points="278.425,999.24 234.591,1025.643 234.591,1076.866 322.258,1076.866 322.258,1025.643 		
			"/>
	</g>
	<g id="d0010">
		<polygon style="fill:#1F2248;" points="681.26,998.92 637.426,1025.323 637.426,1076.546 725.093,1076.546 725.093,1025.323 		"/>
	</g>
	<g id="d0015">
		<polygon style="fill:#1F2248;" points="705.671,971.725 749.614,998.128 749.615,998.128 749.615,892.517 705.671,918.919 		"/>
	</g>
	<g id="d0014">
		<polygon style="fill:#1F2248;" points="705.671,829.168 749.614,855.571 749.615,855.571 749.615,749.959 705.671,776.362 		"/>
	</g>
	<g id="d0012_1_">
		<polygon style="fill:#1F2248;" points="749.614,855.571 705.671,829.168 705.671,776.362 749.615,749.959 749.615,736.758 
			694.822,769.762 694.822,835.769 749.614,868.773 749.615,868.773 749.615,855.571 		"/>
	</g>
	<g id="d0024" style="display:none;">
		<path style="display:inline;fill:#1F2248;" d="M620.505,177.793l-54.98,33.117v66.234l54.98,33.117l54.98-33.117V210.91
			L620.505,177.793z M664.489,270.52l-43.984,26.493l-43.984-26.493v-52.987l43.984-26.493l43.984,26.493V270.52z"/>
	</g>
	<g id="d0025">
		<polygon style="fill:#1F2248;" points="576.521,217.533 576.521,270.52 620.505,297.014 664.489,270.52 664.489,217.533 
			620.505,191.04 		"/>
	</g>
</g>
<g id="VuMark-BrightElements">
	<polygon id="b0029_2_" style="display:none;fill:#FFFFFF;" points="681.26,196.804 736.052,163.801 736.052,106.431 
		725.093,106.431 725.093,157.2 681.26,183.603 637.426,157.2 637.426,106.431 626.468,106.431 626.468,163.801 	"/>
	<polygon id="b0028_2_" style="display:none;fill:#FFFFFF;" points="559.195,196.804 613.987,163.801 613.987,106.431 
		603.029,106.431 603.029,157.2 559.195,183.603 515.361,157.2 515.361,106.431 504.403,106.431 504.403,163.801 	"/>
	<polygon id="b0023_2_" style="display:none;fill:#FFFFFF;" points="278.425,183.603 322.258,157.2 322.258,106.431 
		234.591,106.431 234.591,157.2 	"/>
	<polygon id="b0031_2_" style="display:none;fill:#FFFFFF;" points="707.836,263.776 751.779,290.179 751.779,290.179 
		751.779,184.567 707.836,210.97 	"/>
	<polygon id="b0000_2_" style="display:none;fill:#FFFFFF;" points="156.449,999.24 112.616,1025.643 112.616,1076.866 
		200.283,1076.866 200.283,1025.643 	"/>
	<polygon id="b0008_2_" style="display:none;fill:#FFFFFF;" points="559.195,986.039 504.403,1019.042 504.403,1076.866 
		515.362,1076.866 515.362,1025.643 559.195,999.24 603.029,1025.643 603.029,1076.866 613.987,1076.866 613.987,1019.042 	"/>
	<polygon id="b0005_2_" style="display:none;fill:#FFFFFF;" points="135.646,777.733 91.813,751.33 91.813,856.942 135.646,830.539 
			"/>
	<polygon id="b0020_2_" style="display:none;fill:#FFFFFF;" points="156.449,196.804 211.241,163.801 211.241,106.431 
		200.283,106.431 200.283,157.2 156.449,183.603 112.616,157.2 112.616,106.431 101.657,106.431 101.657,163.801 	"/>
	<polygon id="b0006_2_" style="display:none;fill:#FFFFFF;" points="90.981,998.128 134.924,971.725 134.924,918.919 
		90.981,892.517 90.981,879.315 145.773,912.319 145.773,978.326 90.981,1011.33 90.981,1011.33 90.981,998.128 	"/>
	<polygon id="b0026_2_" style="display:none;fill:#FFFFFF;" points="749.614,437.503 705.671,411.1 705.671,358.294 
		749.615,331.892 749.615,318.69 694.822,351.694 694.822,417.701 749.614,450.705 749.615,450.705 749.615,437.503 	"/>
	<polygon id="b0018_2_" style="display:none;fill:#FFFFFF;" points="90.981,289.833 134.924,263.43 134.924,210.624 90.981,184.221 
		90.981,171.019 145.773,204.023 145.773,270.03 90.981,303.034 90.981,303.034 90.981,289.832 	"/>
	<polygon id="b0017_2_" style="display:none;fill:#FFFFFF;" points="135.646,358.295 91.813,331.892 91.813,437.503 135.646,411.1 	
		"/>
	<polygon id="b0003_2_" style="display:none;fill:#FFFFFF;" points="278.425,999.24 234.591,1025.643 234.591,1076.866 
		322.258,1076.866 322.258,1025.643 	"/>
	<polygon id="b0010_2_" style="display:none;fill:#FFFFFF;" points="681.26,998.92 637.426,1025.323 637.426,1076.546 
		725.093,1076.546 725.093,1025.323 	"/>
	<polygon id="b0015_2_" style="display:none;fill:#FFFFFF;" points="705.671,971.725 749.614,998.128 749.615,998.128 
		749.615,892.517 705.671,918.919 	"/>
	<polygon id="b0012" style="display:none;fill:#FFFFFF;" points="749.614,855.571 705.671,829.168 705.671,776.362 749.615,749.959 
		749.615,736.758 694.822,769.762 694.822,835.769 749.614,868.773 749.615,868.773 749.615,855.571 	"/>
	<polygon id="b0022_2_" style="fill:#FFFFFF;" points="278.425,196.804 333.217,163.801 333.217,106.431 322.258,106.431 
		322.258,157.2 278.425,183.603 234.591,157.2 234.591,106.431 223.633,106.431 223.633,163.801 	"/>
	<polygon id="b0030_2_" style="fill:#FFFFFF;" points="751.779,290.179 707.836,263.776 707.836,210.97 751.779,184.567 
		751.779,171.366 696.987,204.369 696.987,270.377 751.779,303.38 751.779,303.38 751.779,290.179 	"/>
	<polygon id="b0001_2_" style="fill:#FFFFFF;" points="156.449,986.039 101.657,1019.042 101.657,1076.866 112.616,1076.866 
		112.616,1025.643 156.449,999.24 200.283,1025.643 200.283,1076.866 211.241,1076.866 211.241,1019.042 	"/>
	<polygon id="b0032_1_" style="fill:#FFFFFF;" points="559.195,183.603 603.029,157.2 603.029,106.431 515.361,106.431 
		515.361,157.2 	"/>
	<polygon id="b0033_1_" style="fill:#FFFFFF;" points="681.26,183.603 725.093,157.2 725.093,106.431 637.426,106.431 
		637.426,157.2 	"/>
	<polygon id="b0009_2_" style="fill:#FFFFFF;" points="559.195,999.24 515.362,1025.643 515.362,1076.866 603.029,1076.866 
		603.029,1025.643 	"/>
	<polygon id="b0007_2_" style="fill:#FFFFFF;" points="91.813,738.129 91.813,751.33 135.646,777.733 135.646,830.539 
		91.813,856.942 91.813,870.143 146.605,837.14 146.605,771.132 	"/>
	<polygon id="b0021_2_" style="fill:#FFFFFF;" points="156.449,183.603 200.283,157.2 200.283,106.431 112.616,106.431 
		112.616,157.2 	"/>
	<polygon id="b0004_2_" style="fill:#FFFFFF;" points="134.924,971.725 90.981,998.128 90.981,998.128 90.981,892.517 
		134.924,918.919 	"/>
	<polygon id="b0016_2_" style="fill:#FFFFFF;" points="134.924,263.43 90.981,289.833 90.981,289.832 90.981,184.221 
		134.924,210.624 	"/>
	<polygon id="b0019_2_" style="fill:#FFFFFF;" points="91.813,318.69 91.813,331.892 135.646,358.295 135.646,411.1 91.813,437.503 
		91.813,450.705 146.605,417.701 146.605,351.694 	"/>
	<polygon id="b0002_2_" style="fill:#FFFFFF;" points="278.425,986.039 223.633,1019.042 223.633,1076.866 234.591,1076.866 
		234.591,1025.643 278.425,999.24 322.258,1025.643 322.258,1076.866 333.217,1076.866 333.217,1019.042 	"/>
	<polygon id="b0011_2_" style="fill:#FFFFFF;" points="681.26,985.718 626.468,1018.722 626.468,1076.546 637.426,1076.546 
		637.426,1025.323 681.26,998.92 725.093,1025.323 725.093,1076.546 736.052,1076.546 736.052,1018.722 	"/>
	<polygon id="b0014_1_" style="fill:#FFFFFF;" points="705.671,829.168 749.614,855.571 749.615,855.571 749.615,749.959 
		705.671,776.362 	"/>
	<polygon id="b0013" style="fill:#FFFFFF;" points="749.614,998.128 705.671,971.725 705.671,918.919 749.615,892.517 
		749.615,879.315 694.822,912.319 694.822,978.326 749.614,1011.33 749.615,1011.33 749.615,998.128 	"/>
	<polygon id="b0027_2_" style="fill:#FFFFFF;" points="705.671,411.1 749.614,437.503 749.615,437.503 749.615,331.892 
		705.671,358.294 	"/>
	<path id="b0024_2_" style="fill:#FFFFFF;" d="M620.505,177.793l-54.98,33.117v66.234l54.98,33.117l54.98-33.117V210.91
		L620.505,177.793z M664.489,270.52l-43.984,26.493l-43.984-26.493v-52.987l43.984-26.493l43.984,26.493V270.52z"/>
	<polygon id="b0025_2_" style="display:none;fill:#FFFFFF;" points="576.521,217.533 576.521,270.52 620.505,297.014 
		664.489,270.52 664.489,217.533 620.505,191.04 	"/>
</g>
<g id="VuMark-Border">
	<path style="fill:#FFFFFF;" d="M749.428,106.233v970.313H91.813V106.233H749.428 M792.713,61.074h-43.285H91.813H48.527v45.159
		v970.313v45.159h43.285h657.615h43.285v-45.159V106.233V61.074L792.713,61.074z"/>
</g>
<g id="VuMark-Origin">
	
		<circle id="VuMark_Origin_Locator" style="display:none;fill:none;stroke:#E6007E;stroke-width:0.75;stroke-miterlimit:10;" cx="407.95" cy="590.948" r="10"/>
</g>
<g id="VuMark-Contour">
	<g id="contour_19_">
		<path style="fill:#E6007E;" d="M792.173,61.873v1059.021H49.068V61.873H792.173 M793.173,60.873h-1H49.068h-1v1v1059.021v1h1
			h743.105h1v-1V61.873V60.873L793.173,60.873z"/>
	</g>
</g>
<g id="VuMark-AsymmetryMarker">
</g>
<g id="VuMark-Feedback">
	
		<circle id="c0009_13_" style="fill:none;stroke:#E6007E;stroke-width:0.75;stroke-miterlimit:10;" cx="559.195" cy="1038.053" r="17.859"/>
	
		<circle id="c0000_14_" style="fill:none;stroke:#E6007E;stroke-width:0.75;stroke-miterlimit:10;" cx="156.449" cy="1038.053" r="17.859"/>
	
		<circle id="c0003_14_" style="fill:none;stroke:#E6007E;stroke-width:0.75;stroke-miterlimit:10;" cx="278.425" cy="1038.053" r="17.859"/>
	
		<circle id="c0010_14_" style="fill:none;stroke:#E6007E;stroke-width:0.75;stroke-miterlimit:10;" cx="681.26" cy="1037.733" r="17.859"/>
	
		<circle id="c0008_13_" style="fill:none;stroke:#E6007E;stroke-width:0.75;stroke-miterlimit:10;" cx="559.195" cy="1031.453" r="17.859"/>
	
		<circle id="c0002_14_" style="fill:none;stroke:#E6007E;stroke-width:0.75;stroke-miterlimit:10;" cx="278.425" cy="1031.453" r="17.859"/>
	
		<circle id="c0001_14_" style="fill:none;stroke:#E6007E;stroke-width:0.75;stroke-miterlimit:10;" cx="156.449" cy="1031.453" r="17.859"/>
	
		<circle id="c0011_14_" style="fill:none;stroke:#E6007E;stroke-width:0.75;stroke-miterlimit:10;" cx="681.26" cy="1031.132" r="17.859"/>
	
		<circle id="c0006_13_" style="fill:none;stroke:#E6007E;stroke-width:0.75;stroke-miterlimit:10;" cx="118.377" cy="945.322" r="17.859"/>
	
		<circle id="c0013_13_" style="fill:none;stroke:#E6007E;stroke-width:0.75;stroke-miterlimit:10;" cx="722.218" cy="945.322" r="17.859"/>
	
		<circle id="c0004_14_" style="fill:none;stroke:#E6007E;stroke-width:0.75;stroke-miterlimit:10;" cx="112.953" cy="945.322" r="17.859"/>
	
		<circle id="c0015_13_" style="fill:none;stroke:#E6007E;stroke-width:0.75;stroke-miterlimit:10;" cx="727.643" cy="945.322" r="17.859"/>
	
		<circle id="c0005_14_" style="fill:none;stroke:#E6007E;stroke-width:0.75;stroke-miterlimit:10;" cx="113.73" cy="804.136" r="17.859"/>
	
		<circle id="c0007_13_" style="fill:none;stroke:#E6007E;stroke-width:0.75;stroke-miterlimit:10;" cx="119.209" cy="804.136" r="17.859"/>
	
		<circle id="c0014_13_" style="fill:none;stroke:#E6007E;stroke-width:0.75;stroke-miterlimit:10;" cx="727.643" cy="802.765" r="17.859"/>
	
		<circle id="c0012_13_" style="fill:none;stroke:#E6007E;stroke-width:0.75;stroke-miterlimit:10;" cx="722.218" cy="802.765" r="17.859"/>
	
		<circle id="c0027_13_" style="fill:none;stroke:#E6007E;stroke-width:0.75;stroke-miterlimit:10;" cx="727.643" cy="384.697" r="17.859"/>
	
		<circle id="c0019_13_" style="fill:none;stroke:#E6007E;stroke-width:0.75;stroke-miterlimit:10;" cx="119.209" cy="384.697" r="17.859"/>
	
		<circle id="c0017_13_" style="fill:none;stroke:#E6007E;stroke-width:0.75;stroke-miterlimit:10;" cx="113.73" cy="384.697" r="17.859"/>
	
		<circle id="c0026_13_" style="fill:none;stroke:#E6007E;stroke-width:0.75;stroke-miterlimit:10;" cx="722.218" cy="384.697" r="17.859"/>
	
		<circle id="c0024_13_" style="fill:none;stroke:#E6007E;stroke-width:0.75;stroke-miterlimit:10;" cx="620.505" cy="244.027" r="17.859"/>
	
		<circle id="c0025_13_" style="fill:none;stroke:#E6007E;stroke-width:0.75;stroke-miterlimit:10;" cx="620.505" cy="244.027" r="17.859"/>
	
		<circle id="c0030_14_" style="fill:none;stroke:#E6007E;stroke-width:0.75;stroke-miterlimit:10;" cx="724.383" cy="237.373" r="17.859"/>
	
		<circle id="c0031_14_" style="fill:none;stroke:#E6007E;stroke-width:0.75;stroke-miterlimit:10;" cx="729.807" cy="237.373" r="17.859"/>
	
		<circle id="c0018_13_" style="fill:none;stroke:#E6007E;stroke-width:0.75;stroke-miterlimit:10;" cx="118.377" cy="237.027" r="17.859"/>
	
		<circle id="c0016_13_" style="fill:none;stroke:#E6007E;stroke-width:0.75;stroke-miterlimit:10;" cx="112.953" cy="237.027" r="17.859"/>
	
		<circle id="c0022_14_" style="fill:none;stroke:#E6007E;stroke-width:0.75;stroke-miterlimit:10;" cx="278.425" cy="151.618" r="17.859"/>
	
		<circle id="c0029_14_" style="fill:none;stroke:#E6007E;stroke-width:0.75;stroke-miterlimit:10;" cx="681.26" cy="151.618" r="17.859"/>
	
		<circle id="c0028_14_" style="fill:none;stroke:#E6007E;stroke-width:0.75;stroke-miterlimit:10;" cx="559.195" cy="151.618" r="17.859"/>
	
		<circle id="c0020_13_" style="fill:none;stroke:#E6007E;stroke-width:0.75;stroke-miterlimit:10;" cx="156.449" cy="151.618" r="17.859"/>
	
		<circle id="c0033_14_" style="fill:none;stroke:#E6007E;stroke-width:0.75;stroke-miterlimit:10;" cx="681.26" cy="145.017" r="17.859"/>
	
		<circle id="c0023_13_" style="fill:none;stroke:#E6007E;stroke-width:0.75;stroke-miterlimit:10;" cx="278.425" cy="145.017" r="17.859"/>
	
		<circle id="c0032_14_" style="fill:none;stroke:#E6007E;stroke-width:0.75;stroke-miterlimit:10;" cx="559.195" cy="145.017" r="17.859"/>
	
		<circle id="c0021_14_" style="fill:none;stroke:#E6007E;stroke-width:0.75;stroke-miterlimit:10;" cx="156.449" cy="145.017" r="17.859"/>
	<g id="MinimumContourClearSpace_20_" style="opacity:0.5;">
		<path style="fill-rule:evenodd;clip-rule:evenodd;fill:#E6007E;" d="M13.35,1156.612V26.155H827.89v1130.457H13.35z
			 M84.786,1085.176V97.591h671.669v987.585H84.786z"/>
	</g>
</g>
<g id="VuMark-Description">
	<g id="VuMark:myVumark">
		<path d="M-220.363,259.992l-2.639-8.084h1.127l1.259,3.982c0.348,1.091,0.648,2.074,0.864,3.022h0.024
			c0.228-0.936,0.563-1.955,0.923-3.011l1.367-3.994h1.116l-2.891,8.084H-220.363z"/>
		<path d="M-210.837,258.409c0,0.6,0.012,1.127,0.048,1.583h-0.936l-0.06-0.947h-0.024c-0.276,0.468-0.887,1.079-1.919,1.079
			c-0.911,0-2.003-0.504-2.003-2.543v-3.394h1.056v3.214c0,1.104,0.336,1.848,1.295,1.848c0.708,0,1.199-0.492,1.391-0.96
			c0.06-0.156,0.096-0.348,0.096-0.54v-3.562h1.056V258.409z"/>
		<path d="M-202.235,256.443c-0.06-1.128-0.132-2.482-0.12-3.49h-0.036c-0.276,0.947-0.612,1.955-1.02,3.07l-1.427,3.922h-0.792
			l-1.307-3.85c-0.384-1.14-0.708-2.184-0.936-3.143h-0.024c-0.024,1.008-0.084,2.362-0.156,3.574l-0.216,3.466h-0.995l0.563-8.084
			h1.332l1.379,3.91c0.336,0.995,0.612,1.883,0.815,2.723h0.036c0.204-0.815,0.492-1.703,0.852-2.723l1.439-3.91h1.331l0.504,8.084
			h-1.02L-202.235,256.443z"/>
		<path d="M-196.148,259.992l-0.084-0.731h-0.036c-0.324,0.456-0.947,0.863-1.775,0.863c-1.175,0-1.775-0.827-1.775-1.667
			c0-1.403,1.247-2.171,3.49-2.159v-0.119c0-0.48-0.132-1.344-1.319-1.344c-0.54,0-1.103,0.168-1.511,0.432l-0.24-0.695
			c0.48-0.312,1.176-0.516,1.907-0.516c1.775,0,2.207,1.211,2.207,2.374v2.171c0,0.504,0.024,0.996,0.096,1.392H-196.148z
			 M-196.304,257.031c-1.151-0.024-2.459,0.18-2.459,1.307c0,0.684,0.456,1.008,0.996,1.008c0.755,0,1.235-0.479,1.403-0.972
			c0.036-0.107,0.06-0.228,0.06-0.336V257.031z"/>
		<path d="M-193.579,255.998c0-0.684-0.012-1.271-0.048-1.811h0.923l0.036,1.14h0.048c0.264-0.78,0.899-1.271,1.607-1.271
			c0.12,0,0.204,0.012,0.3,0.036v0.995c-0.108-0.024-0.216-0.036-0.36-0.036c-0.744,0-1.271,0.563-1.416,1.355
			c-0.024,0.144-0.048,0.312-0.048,0.491v3.095h-1.043V255.998z"/>
		<path d="M-188.563,256.85h0.024c0.144-0.203,0.348-0.455,0.516-0.659l1.703-2.003h1.271l-2.243,2.387l2.554,3.418h-1.283
			l-2.003-2.782l-0.54,0.6v2.183h-1.043v-8.516h1.043V256.85z"/>
		<path d="M-184.111,255.147c0-0.443,0.3-0.755,0.72-0.755s0.696,0.312,0.708,0.755c0,0.42-0.276,0.744-0.72,0.744
			C-183.823,255.891-184.111,255.567-184.111,255.147z M-184.111,259.381c0-0.444,0.3-0.756,0.72-0.756s0.696,0.312,0.708,0.756
			c0,0.42-0.276,0.743-0.72,0.743C-183.823,260.124-184.111,259.801-184.111,259.381z"/>
		<path d="M-173.743,255.759c0-0.6-0.012-1.092-0.048-1.571h0.923l0.048,0.936h0.036c0.324-0.552,0.864-1.067,1.823-1.067
			c0.792,0,1.391,0.479,1.643,1.163h0.024c0.18-0.324,0.408-0.575,0.647-0.756c0.348-0.264,0.731-0.407,1.283-0.407
			c0.768,0,1.907,0.504,1.907,2.519v3.418h-1.032v-3.286c0-1.115-0.408-1.787-1.259-1.787c-0.6,0-1.067,0.443-1.247,0.96
			c-0.048,0.144-0.084,0.335-0.084,0.527v3.586h-1.032v-3.479c0-0.923-0.408-1.595-1.211-1.595c-0.66,0-1.14,0.527-1.308,1.056
			c-0.06,0.155-0.084,0.336-0.084,0.516v3.502h-1.031V255.759z"/>
		<path d="M-163.508,254.188l1.271,3.43c0.132,0.384,0.276,0.84,0.372,1.188h0.024c0.108-0.348,0.228-0.791,0.372-1.211l1.151-3.406
			h1.115l-1.583,4.138c-0.756,1.991-1.271,3.011-1.991,3.634c-0.516,0.456-1.031,0.636-1.295,0.684l-0.264-0.888
			c0.264-0.084,0.612-0.252,0.924-0.516c0.288-0.228,0.647-0.636,0.887-1.175c0.048-0.108,0.084-0.192,0.084-0.252
			c0-0.061-0.024-0.145-0.072-0.276l-2.147-5.349H-163.508z"/>
		<path d="M-156.428,259.992l-2.639-8.084h1.127l1.259,3.982c0.348,1.091,0.648,2.074,0.864,3.022h0.024
			c0.228-0.936,0.563-1.955,0.923-3.011l1.367-3.994h1.116l-2.891,8.084H-156.428z"/>
		<path d="M-146.902,258.409c0,0.6,0.012,1.127,0.048,1.583h-0.936l-0.06-0.947h-0.024c-0.276,0.468-0.887,1.079-1.919,1.079
			c-0.911,0-2.003-0.504-2.003-2.543v-3.394h1.056v3.214c0,1.104,0.336,1.848,1.295,1.848c0.708,0,1.199-0.492,1.391-0.96
			c0.06-0.156,0.096-0.348,0.096-0.54v-3.562h1.056V258.409z"/>
		<path d="M-145.147,255.759c0-0.6-0.012-1.092-0.048-1.571h0.923l0.048,0.936h0.036c0.324-0.552,0.864-1.067,1.823-1.067
			c0.792,0,1.391,0.479,1.643,1.163h0.024c0.18-0.324,0.408-0.575,0.647-0.756c0.348-0.264,0.731-0.407,1.283-0.407
			c0.768,0,1.907,0.504,1.907,2.519v3.418h-1.032v-3.286c0-1.115-0.408-1.787-1.259-1.787c-0.6,0-1.067,0.443-1.247,0.96
			c-0.048,0.144-0.084,0.335-0.084,0.527v3.586h-1.031v-3.479c0-0.923-0.408-1.595-1.211-1.595c-0.66,0-1.14,0.527-1.308,1.056
			c-0.06,0.155-0.084,0.336-0.084,0.516v3.502h-1.031V255.759z"/>
		<path d="M-131.925,259.992l-0.084-0.731h-0.036c-0.324,0.456-0.947,0.863-1.775,0.863c-1.175,0-1.775-0.827-1.775-1.667
			c0-1.403,1.247-2.171,3.49-2.159v-0.119c0-0.48-0.132-1.344-1.319-1.344c-0.54,0-1.104,0.168-1.511,0.432l-0.24-0.695
			c0.48-0.312,1.175-0.516,1.907-0.516c1.775,0,2.207,1.211,2.207,2.374v2.171c0,0.504,0.024,0.996,0.096,1.392H-131.925z
			 M-132.081,257.031c-1.151-0.024-2.458,0.18-2.458,1.307c0,0.684,0.456,1.008,0.996,1.008c0.755,0,1.235-0.479,1.403-0.972
			c0.036-0.107,0.06-0.228,0.06-0.336V257.031z"/>
		<path d="M-129.355,255.998c0-0.684-0.012-1.271-0.048-1.811h0.923l0.036,1.14h0.048c0.264-0.78,0.899-1.271,1.607-1.271
			c0.12,0,0.204,0.012,0.3,0.036v0.995c-0.108-0.024-0.216-0.036-0.36-0.036c-0.744,0-1.271,0.563-1.416,1.355
			c-0.024,0.144-0.048,0.312-0.048,0.491v3.095h-1.043V255.998z"/>
		<path d="M-124.34,256.85h0.024c0.144-0.203,0.348-0.455,0.516-0.659l1.703-2.003h1.271l-2.243,2.387l2.554,3.418h-1.283
			l-2.003-2.782l-0.54,0.6v2.183h-1.043v-8.516h1.043V256.85z"/>
	</g>
	<g id="IDtype:numeric">
		<path d="M-221.095,266.908v8.084h-1.043v-8.084H-221.095z"/>
		<path d="M-219.27,267.017c0.636-0.096,1.391-0.168,2.219-0.168c1.499,0,2.566,0.348,3.274,1.008c0.72,0.659,1.14,1.595,1.14,2.902
			c0,1.319-0.408,2.398-1.164,3.142c-0.755,0.756-2.003,1.164-3.574,1.164c-0.744,0-1.367-0.036-1.895-0.097V267.017z
			 M-218.227,274.165c0.264,0.048,0.647,0.06,1.055,0.06c2.231,0,3.442-1.247,3.442-3.43c0.012-1.907-1.067-3.119-3.274-3.119
			c-0.54,0-0.947,0.049-1.223,0.108V274.165z"/>
		<path d="M-209.839,267.521v1.667h1.511v0.804h-1.511v3.13c0,0.72,0.204,1.128,0.792,1.128c0.276,0,0.479-0.036,0.612-0.072
			l0.048,0.791c-0.204,0.084-0.528,0.145-0.936,0.145c-0.492,0-0.888-0.156-1.14-0.444c-0.3-0.312-0.408-0.827-0.408-1.511v-3.166
			h-0.899v-0.804h0.899v-1.392L-209.839,267.521z"/>
		<path d="M-206.647,269.188l1.271,3.43c0.132,0.384,0.276,0.84,0.372,1.188h0.024c0.108-0.348,0.228-0.791,0.372-1.211l1.151-3.406
			h1.115l-1.583,4.138c-0.756,1.991-1.271,3.011-1.991,3.634c-0.516,0.456-1.031,0.636-1.295,0.684l-0.264-0.888
			c0.264-0.084,0.612-0.252,0.924-0.516c0.288-0.228,0.647-0.636,0.887-1.175c0.048-0.108,0.084-0.192,0.084-0.252
			c0-0.061-0.024-0.145-0.072-0.276l-2.147-5.349H-206.647z"/>
		<path d="M-201.379,271.082c0-0.743-0.024-1.343-0.048-1.895h0.947l0.048,0.995h0.024c0.432-0.707,1.115-1.127,2.063-1.127
			c1.403,0,2.459,1.188,2.459,2.95c0,2.087-1.271,3.118-2.639,3.118c-0.768,0-1.439-0.336-1.787-0.911h-0.024v3.154h-1.043V271.082z
			 M-200.336,272.63c0,0.155,0.024,0.3,0.048,0.432c0.192,0.731,0.828,1.235,1.583,1.235c1.115,0,1.763-0.912,1.763-2.243
			c0-1.163-0.611-2.159-1.727-2.159c-0.72,0-1.391,0.517-1.595,1.308c-0.036,0.132-0.072,0.288-0.072,0.432V272.63z"/>
		<path d="M-193.964,272.281c0.024,1.428,0.935,2.016,1.991,2.016c0.755,0,1.211-0.132,1.607-0.3l0.18,0.755
			c-0.372,0.168-1.007,0.36-1.931,0.36c-1.787,0-2.854-1.176-2.854-2.927s1.032-3.13,2.723-3.13c1.895,0,2.399,1.667,2.399,2.734
			c0,0.216-0.024,0.384-0.036,0.491H-193.964z M-190.869,271.527c0.012-0.672-0.276-1.716-1.463-1.716
			c-1.067,0-1.535,0.984-1.619,1.716H-190.869z"/>
		<path d="M-188.791,270.147c0-0.443,0.3-0.755,0.72-0.755s0.696,0.312,0.708,0.755c0,0.42-0.276,0.744-0.72,0.744
			C-188.503,270.891-188.791,270.567-188.791,270.147z M-188.791,274.381c0-0.444,0.3-0.756,0.72-0.756s0.696,0.312,0.708,0.756
			c0,0.42-0.276,0.743-0.72,0.743C-188.503,275.124-188.791,274.801-188.791,274.381z"/>
		<path d="M-178.424,270.759c0-0.6-0.012-1.092-0.048-1.571h0.936l0.06,0.959h0.024c0.288-0.552,0.959-1.091,1.919-1.091
			c0.803,0,2.051,0.479,2.051,2.471v3.466h-1.056v-3.346c0-0.936-0.348-1.716-1.343-1.716c-0.695,0-1.235,0.492-1.415,1.08
			c-0.048,0.132-0.072,0.312-0.072,0.491v3.49h-1.056V270.759z"/>
		<path d="M-166.906,273.409c0,0.6,0.012,1.127,0.048,1.583h-0.936l-0.06-0.947h-0.024c-0.276,0.468-0.887,1.079-1.919,1.079
			c-0.911,0-2.003-0.504-2.003-2.543v-3.394h1.056v3.214c0,1.104,0.336,1.848,1.295,1.848c0.708,0,1.199-0.492,1.391-0.96
			c0.06-0.156,0.096-0.348,0.096-0.54v-3.562h1.056V273.409z"/>
		<path d="M-165.152,270.759c0-0.6-0.012-1.092-0.048-1.571h0.923l0.048,0.936h0.036c0.324-0.552,0.864-1.067,1.823-1.067
			c0.792,0,1.391,0.479,1.643,1.163h0.024c0.18-0.324,0.408-0.575,0.647-0.756c0.348-0.264,0.731-0.407,1.283-0.407
			c0.768,0,1.907,0.504,1.907,2.519v3.418h-1.032v-3.286c0-1.115-0.408-1.787-1.259-1.787c-0.6,0-1.067,0.443-1.247,0.96
			c-0.048,0.144-0.084,0.335-0.084,0.527v3.586h-1.031v-3.479c0-0.923-0.408-1.595-1.211-1.595c-0.66,0-1.14,0.527-1.308,1.056
			c-0.06,0.155-0.084,0.336-0.084,0.516v3.502h-1.031V270.759z"/>
		<path d="M-154.556,272.281c0.024,1.428,0.935,2.016,1.991,2.016c0.755,0,1.211-0.132,1.607-0.3l0.18,0.755
			c-0.372,0.168-1.007,0.36-1.931,0.36c-1.787,0-2.854-1.176-2.854-2.927s1.032-3.13,2.723-3.13c1.895,0,2.399,1.667,2.399,2.734
			c0,0.216-0.024,0.384-0.036,0.491H-154.556z M-151.462,271.527c0.012-0.672-0.276-1.716-1.463-1.716
			c-1.067,0-1.535,0.984-1.619,1.716H-151.462z"/>
		<path d="M-149.132,270.998c0-0.684-0.012-1.271-0.048-1.811h0.923l0.036,1.14h0.048c0.264-0.78,0.899-1.271,1.607-1.271
			c0.12,0,0.204,0.012,0.3,0.036v0.995c-0.108-0.024-0.216-0.036-0.359-0.036c-0.744,0-1.271,0.563-1.416,1.355
			c-0.024,0.144-0.048,0.312-0.048,0.491v3.095h-1.043V270.998z"/>
		<path d="M-143.985,267.557c0.012,0.359-0.252,0.647-0.671,0.647c-0.372,0-0.636-0.288-0.636-0.647c0-0.372,0.276-0.66,0.66-0.66
			C-144.237,266.897-143.985,267.185-143.985,267.557z M-145.16,274.992v-5.805h1.056v5.805H-145.16z"/>
		<path d="M-138.215,274.777c-0.276,0.144-0.887,0.336-1.667,0.336c-1.751,0-2.891-1.188-2.891-2.963
			c0-1.787,1.224-3.082,3.119-3.082c0.624,0,1.175,0.156,1.463,0.3l-0.24,0.815c-0.252-0.144-0.647-0.275-1.223-0.275
			c-1.332,0-2.051,0.983-2.051,2.194c0,1.344,0.864,2.171,2.015,2.171c0.6,0,0.996-0.156,1.295-0.288L-138.215,274.777z"/>
	</g>
	<g id="IDlength:10">
		<path d="M-221.095,281.908v8.084h-1.043v-8.084H-221.095z"/>
		<path d="M-219.27,282.017c0.636-0.096,1.391-0.168,2.219-0.168c1.499,0,2.566,0.348,3.274,1.008c0.72,0.659,1.14,1.595,1.14,2.902
			c0,1.319-0.408,2.398-1.164,3.142c-0.755,0.756-2.003,1.164-3.574,1.164c-0.744,0-1.367-0.036-1.895-0.097V282.017z
			 M-218.227,289.165c0.264,0.048,0.647,0.06,1.055,0.06c2.231,0,3.442-1.247,3.442-3.43c0.012-1.907-1.067-3.119-3.274-3.119
			c-0.54,0-0.947,0.049-1.223,0.108V289.165z"/>
		<path d="M-211.315,281.477h1.056v8.516h-1.056V281.477z"/>
		<path d="M-207.895,287.281c0.024,1.428,0.936,2.016,1.991,2.016c0.755,0,1.211-0.132,1.607-0.3l0.18,0.755
			c-0.372,0.168-1.007,0.36-1.931,0.36c-1.787,0-2.854-1.176-2.854-2.927s1.032-3.13,2.723-3.13c1.895,0,2.399,1.667,2.399,2.734
			c0,0.216-0.024,0.384-0.036,0.491H-207.895z M-204.8,286.527c0.012-0.672-0.276-1.716-1.463-1.716
			c-1.067,0-1.535,0.984-1.619,1.716H-204.8z"/>
		<path d="M-202.471,285.759c0-0.6-0.012-1.092-0.048-1.571h0.936l0.06,0.959h0.024c0.288-0.552,0.959-1.091,1.919-1.091
			c0.803,0,2.051,0.479,2.051,2.471v3.466h-1.056v-3.346c0-0.936-0.348-1.716-1.343-1.716c-0.695,0-1.235,0.492-1.415,1.08
			c-0.048,0.132-0.072,0.312-0.072,0.491v3.49h-1.056V285.759z"/>
		<path d="M-190.81,284.188c-0.024,0.42-0.048,0.888-0.048,1.595v3.37c0,1.332-0.264,2.147-0.827,2.65
			c-0.564,0.528-1.379,0.696-2.111,0.696c-0.696,0-1.463-0.168-1.931-0.479l0.264-0.804c0.384,0.239,0.984,0.455,1.703,0.455
			c1.08,0,1.871-0.563,1.871-2.026v-0.647h-0.024c-0.324,0.539-0.948,0.971-1.847,0.971c-1.439,0-2.471-1.223-2.471-2.83
			c0-1.967,1.284-3.082,2.615-3.082c1.007,0,1.559,0.527,1.811,1.007h0.024l0.048-0.875H-190.81z M-191.902,286.479
			c0-0.181-0.012-0.336-0.06-0.48c-0.192-0.611-0.708-1.115-1.476-1.115c-1.007,0-1.727,0.852-1.727,2.195
			c0,1.139,0.576,2.087,1.715,2.087c0.647,0,1.235-0.408,1.463-1.08c0.06-0.18,0.084-0.384,0.084-0.563V286.479z"/>
		<path d="M-187.832,282.521v1.667h1.511v0.804h-1.511v3.13c0,0.72,0.204,1.128,0.792,1.128c0.276,0,0.479-0.036,0.611-0.072
			l0.048,0.791c-0.204,0.084-0.528,0.145-0.936,0.145c-0.492,0-0.888-0.156-1.14-0.444c-0.3-0.312-0.408-0.827-0.408-1.511v-3.166
			h-0.899v-0.804h0.899v-1.392L-187.832,282.521z"/>
		<path d="M-185.131,281.477h1.056v3.622h0.024c0.168-0.3,0.432-0.563,0.755-0.743c0.312-0.18,0.684-0.3,1.08-0.3
			c0.779,0,2.027,0.479,2.027,2.482v3.454h-1.056v-3.334c0-0.936-0.348-1.728-1.343-1.728c-0.684,0-1.223,0.48-1.415,1.056
			c-0.06,0.144-0.072,0.3-0.072,0.504v3.502h-1.056V281.477z"/>
		<path d="M-178.723,285.147c0-0.443,0.3-0.755,0.72-0.755s0.696,0.312,0.708,0.755c0,0.42-0.276,0.744-0.72,0.744
			C-178.435,285.891-178.723,285.567-178.723,285.147z M-178.723,289.381c0-0.444,0.3-0.756,0.72-0.756s0.696,0.312,0.708,0.756
			c0,0.42-0.276,0.743-0.72,0.743C-178.435,290.124-178.723,289.801-178.723,289.381z"/>
		<path d="M-166.401,283.18h-0.024l-1.355,0.731l-0.204-0.803l1.703-0.912h0.9v7.796h-1.02V283.18z"/>
		<path d="M-157.355,286.011c0,2.65-0.983,4.113-2.71,4.113c-1.523,0-2.555-1.427-2.579-4.006c0-2.614,1.127-4.054,2.71-4.054
			C-158.29,282.065-157.355,283.528-157.355,286.011z M-161.588,286.13c0,2.027,0.624,3.179,1.583,3.179
			c1.08,0,1.595-1.26,1.595-3.25c0-1.919-0.492-3.179-1.583-3.179C-160.917,282.88-161.588,284.008-161.588,286.13z"/>
	</g>
	<g id="MaxID:999">
		<path d="M-215.326,301.443c-0.06-1.128-0.132-2.482-0.12-3.49h-0.036c-0.276,0.947-0.612,1.955-1.02,3.07l-1.427,3.922h-0.792
			l-1.307-3.85c-0.384-1.14-0.708-2.184-0.936-3.143h-0.024c-0.024,1.008-0.084,2.362-0.156,3.574l-0.216,3.466h-0.995l0.563-8.084
			h1.332l1.379,3.91c0.336,0.995,0.612,1.883,0.815,2.723h0.036c0.204-0.815,0.492-1.703,0.852-2.723l1.439-3.91h1.331l0.504,8.084
			h-1.02L-215.326,301.443z"/>
		<path d="M-209.24,304.992l-0.084-0.731h-0.036c-0.324,0.456-0.947,0.863-1.775,0.863c-1.175,0-1.775-0.827-1.775-1.667
			c0-1.403,1.247-2.171,3.49-2.159v-0.119c0-0.48-0.132-1.344-1.319-1.344c-0.54,0-1.104,0.168-1.511,0.432l-0.24-0.695
			c0.48-0.312,1.175-0.516,1.907-0.516c1.775,0,2.207,1.211,2.207,2.374v2.171c0,0.504,0.024,0.996,0.096,1.392H-209.24z
			 M-209.397,302.031c-1.151-0.024-2.458,0.18-2.458,1.307c0,0.684,0.456,1.008,0.996,1.008c0.755,0,1.235-0.479,1.403-0.972
			c0.036-0.107,0.06-0.228,0.06-0.336V302.031z"/>
		<path d="M-206.179,299.188l0.828,1.247c0.216,0.324,0.396,0.624,0.587,0.947h0.036c0.192-0.348,0.384-0.647,0.576-0.959
			l0.815-1.235h1.14l-1.979,2.807l2.039,2.998h-1.2l-0.851-1.308c-0.228-0.336-0.42-0.659-0.624-1.007h-0.024
			c-0.192,0.348-0.396,0.659-0.612,1.007l-0.839,1.308h-1.164l2.063-2.962l-1.967-2.843H-206.179z"/>
		<path d="M-200.035,296.908v8.084h-1.043v-8.084H-200.035z"/>
		<path d="M-198.211,297.017c0.636-0.096,1.391-0.168,2.219-0.168c1.499,0,2.566,0.348,3.274,1.008
			c0.72,0.659,1.14,1.595,1.14,2.902c0,1.319-0.408,2.398-1.164,3.142c-0.755,0.756-2.003,1.164-3.574,1.164
			c-0.744,0-1.367-0.036-1.895-0.097V297.017z M-197.167,304.165c0.264,0.048,0.647,0.06,1.055,0.06c2.231,0,3.442-1.247,3.442-3.43
			c0.012-1.907-1.067-3.119-3.274-3.119c-0.54,0-0.947,0.049-1.223,0.108V304.165z"/>
		<path d="M-190.507,300.147c0-0.443,0.3-0.755,0.72-0.755s0.696,0.312,0.708,0.755c0,0.42-0.276,0.744-0.72,0.744
			C-190.219,300.891-190.507,300.567-190.507,300.147z M-190.507,304.381c0-0.444,0.3-0.756,0.72-0.756s0.696,0.312,0.708,0.756
			c0,0.42-0.276,0.743-0.72,0.743C-190.219,305.124-190.507,304.801-190.507,304.381z"/>
		<path d="M-179.863,304.249c0.228,0.023,0.492,0,0.852-0.036c0.612-0.084,1.188-0.336,1.631-0.756
			c0.516-0.468,0.888-1.151,1.032-2.075h-0.036c-0.432,0.528-1.055,0.84-1.835,0.84c-1.403,0-2.303-1.056-2.303-2.387
			c0-1.476,1.067-2.771,2.663-2.771s2.579,1.295,2.579,3.286c0,1.715-0.576,2.915-1.343,3.658c-0.6,0.588-1.427,0.947-2.267,1.043
			c-0.384,0.061-0.72,0.072-0.972,0.061V304.249z M-179.48,299.763c0,0.972,0.588,1.655,1.499,1.655
			c0.708,0,1.259-0.348,1.535-0.815c0.06-0.096,0.096-0.216,0.096-0.384c0-1.331-0.492-2.351-1.595-2.351
			C-178.844,297.868-179.48,298.66-179.48,299.763z"/>
		<path d="M-173.708,304.249c0.228,0.023,0.492,0,0.852-0.036c0.612-0.084,1.188-0.336,1.631-0.756
			c0.516-0.468,0.888-1.151,1.032-2.075h-0.036c-0.432,0.528-1.055,0.84-1.835,0.84c-1.403,0-2.303-1.056-2.303-2.387
			c0-1.476,1.067-2.771,2.663-2.771s2.579,1.295,2.579,3.286c0,1.715-0.576,2.915-1.343,3.658c-0.6,0.588-1.427,0.947-2.267,1.043
			c-0.384,0.061-0.72,0.072-0.972,0.061V304.249z M-173.324,299.763c0,0.972,0.588,1.655,1.499,1.655
			c0.708,0,1.259-0.348,1.535-0.815c0.06-0.096,0.096-0.216,0.096-0.384c0-1.331-0.492-2.351-1.595-2.351
			C-172.688,297.868-173.324,298.66-173.324,299.763z"/>
		<path d="M-167.552,304.249c0.228,0.023,0.492,0,0.852-0.036c0.612-0.084,1.188-0.336,1.631-0.756
			c0.516-0.468,0.888-1.151,1.032-2.075h-0.036c-0.432,0.528-1.055,0.84-1.835,0.84c-1.403,0-2.303-1.056-2.303-2.387
			c0-1.476,1.067-2.771,2.663-2.771s2.579,1.295,2.579,3.286c0,1.715-0.576,2.915-1.343,3.658c-0.6,0.588-1.427,0.947-2.267,1.043
			c-0.384,0.061-0.72,0.072-0.972,0.061V304.249z M-167.168,299.763c0,0.972,0.588,1.655,1.499,1.655
			c0.708,0,1.259-0.348,1.535-0.815c0.06-0.096,0.096-0.216,0.096-0.384c0-1.331-0.492-2.351-1.595-2.351
			C-166.532,297.868-167.168,298.66-167.168,299.763z"/>
	</g>
	<g id="Elements:34">
		<path d="M-217.953,316.202h-3.142v2.914h3.502v0.876h-4.545v-8.084h4.366v0.876h-3.322v2.555h3.142V316.202z"/>
		<path d="M-216.271,311.477h1.056v8.516h-1.056V311.477z"/>
		<path d="M-212.851,317.281c0.024,1.428,0.936,2.016,1.991,2.016c0.755,0,1.211-0.132,1.607-0.3l0.18,0.755
			c-0.372,0.168-1.007,0.36-1.931,0.36c-1.787,0-2.854-1.176-2.854-2.927s1.032-3.13,2.723-3.13c1.895,0,2.399,1.667,2.399,2.734
			c0,0.216-0.024,0.384-0.036,0.491H-212.851z M-209.757,316.527c0.012-0.672-0.276-1.716-1.463-1.716
			c-1.067,0-1.535,0.984-1.619,1.716H-209.757z"/>
		<path d="M-207.427,315.759c0-0.6-0.012-1.092-0.048-1.571h0.923l0.048,0.936h0.036c0.324-0.552,0.864-1.067,1.823-1.067
			c0.792,0,1.391,0.479,1.643,1.163h0.024c0.18-0.324,0.408-0.575,0.647-0.756c0.348-0.264,0.731-0.407,1.283-0.407
			c0.768,0,1.907,0.504,1.907,2.519v3.418h-1.032v-3.286c0-1.115-0.408-1.787-1.259-1.787c-0.6,0-1.067,0.443-1.247,0.96
			c-0.048,0.144-0.084,0.335-0.084,0.527v3.586h-1.032v-3.479c0-0.923-0.408-1.595-1.211-1.595c-0.66,0-1.14,0.527-1.308,1.056
			c-0.06,0.155-0.084,0.336-0.084,0.516v3.502h-1.031V315.759z"/>
		<path d="M-196.831,317.281c0.024,1.428,0.935,2.016,1.991,2.016c0.755,0,1.211-0.132,1.607-0.3l0.18,0.755
			c-0.372,0.168-1.007,0.36-1.931,0.36c-1.787,0-2.854-1.176-2.854-2.927s1.032-3.13,2.723-3.13c1.895,0,2.399,1.667,2.399,2.734
			c0,0.216-0.024,0.384-0.036,0.491H-196.831z M-193.737,316.527c0.012-0.672-0.276-1.716-1.463-1.716
			c-1.067,0-1.535,0.984-1.619,1.716H-193.737z"/>
		<path d="M-191.407,315.759c0-0.6-0.012-1.092-0.048-1.571h0.936l0.06,0.959h0.024c0.288-0.552,0.959-1.091,1.919-1.091
			c0.803,0,2.051,0.479,2.051,2.471v3.466h-1.056v-3.346c0-0.936-0.348-1.716-1.343-1.716c-0.695,0-1.235,0.492-1.415,1.08
			c-0.048,0.132-0.072,0.312-0.072,0.491v3.49h-1.056V315.759z"/>
		<path d="M-183.524,312.521v1.667h1.511v0.804h-1.511v3.13c0,0.72,0.204,1.128,0.792,1.128c0.276,0,0.479-0.036,0.612-0.072
			l0.048,0.791c-0.204,0.084-0.528,0.145-0.936,0.145c-0.492,0-0.888-0.156-1.14-0.444c-0.3-0.312-0.408-0.827-0.408-1.511v-3.166
			h-0.899v-0.804h0.899v-1.392L-183.524,312.521z"/>
		<path d="M-180.967,318.913c0.312,0.203,0.864,0.42,1.392,0.42c0.768,0,1.127-0.384,1.127-0.864c0-0.504-0.3-0.779-1.079-1.067
			c-1.043-0.371-1.535-0.947-1.535-1.643c0-0.936,0.755-1.703,2.003-1.703c0.587,0,1.104,0.168,1.427,0.359l-0.264,0.768
			c-0.228-0.144-0.647-0.336-1.187-0.336c-0.624,0-0.972,0.36-0.972,0.792c0,0.479,0.348,0.695,1.104,0.983
			c1.007,0.384,1.523,0.888,1.523,1.751c0,1.02-0.792,1.739-2.171,1.739c-0.635,0-1.223-0.156-1.631-0.396L-180.967,318.913z"/>
		<path d="M-173.527,315.998c0-0.684-0.012-1.271-0.048-1.811h0.923l0.036,1.14h0.048c0.264-0.78,0.899-1.271,1.607-1.271
			c0.12,0,0.204,0.012,0.3,0.036v0.995c-0.108-0.024-0.216-0.036-0.36-0.036c-0.744,0-1.271,0.563-1.416,1.355
			c-0.024,0.144-0.048,0.312-0.048,0.491v3.095h-1.043V315.998z"/>
		<path d="M-169.135,317.281c0.024,1.428,0.935,2.016,1.991,2.016c0.755,0,1.211-0.132,1.607-0.3l0.18,0.755
			c-0.372,0.168-1.007,0.36-1.931,0.36c-1.787,0-2.854-1.176-2.854-2.927s1.032-3.13,2.723-3.13c1.895,0,2.399,1.667,2.399,2.734
			c0,0.216-0.024,0.384-0.036,0.491H-169.135z M-166.041,316.527c0.012-0.672-0.276-1.716-1.463-1.716
			c-1.067,0-1.535,0.984-1.619,1.716H-166.041z"/>
		<path d="M-159.753,319.093h-0.024c-0.312,0.575-0.959,1.031-1.895,1.031c-1.355,0-2.459-1.175-2.459-2.938
			c0-2.171,1.403-3.13,2.627-3.13c0.899,0,1.499,0.443,1.787,1.007h0.024l0.036-0.875h0.996c-0.024,0.491-0.036,0.995-0.036,1.595
			v6.585h-1.055V319.093z M-159.753,316.538c0-0.144-0.012-0.312-0.048-0.443c-0.156-0.648-0.719-1.2-1.511-1.2
			c-1.092,0-1.751,0.924-1.751,2.231c0,1.151,0.552,2.158,1.715,2.158c0.684,0,1.271-0.419,1.511-1.151
			c0.048-0.144,0.084-0.348,0.084-0.503V316.538z"/>
		<path d="M-152.098,318.409c0,0.6,0.012,1.127,0.048,1.583h-0.936l-0.06-0.947h-0.024c-0.276,0.468-0.887,1.079-1.919,1.079
			c-0.911,0-2.003-0.504-2.003-2.543v-3.394h1.056v3.214c0,1.104,0.336,1.848,1.295,1.848c0.708,0,1.199-0.492,1.391-0.96
			c0.06-0.156,0.096-0.348,0.096-0.54v-3.562h1.056V318.409z"/>
		<path d="M-149.168,312.557c0.012,0.359-0.252,0.647-0.671,0.647c-0.372,0-0.636-0.288-0.636-0.647c0-0.372,0.276-0.66,0.66-0.66
			C-149.42,311.897-149.168,312.185-149.168,312.557z M-150.343,319.992v-5.805h1.056v5.805H-150.343z"/>
		<path d="M-147.536,315.998c0-0.684-0.012-1.271-0.048-1.811h0.923l0.036,1.14h0.048c0.264-0.78,0.899-1.271,1.607-1.271
			c0.12,0,0.204,0.012,0.3,0.036v0.995c-0.108-0.024-0.216-0.036-0.36-0.036c-0.744,0-1.271,0.563-1.416,1.355
			c-0.024,0.144-0.048,0.312-0.048,0.491v3.095h-1.043V315.998z"/>
		<path d="M-143.144,317.281c0.024,1.428,0.936,2.016,1.991,2.016c0.755,0,1.211-0.132,1.607-0.3l0.18,0.755
			c-0.372,0.168-1.007,0.36-1.931,0.36c-1.787,0-2.854-1.176-2.854-2.927s1.032-3.13,2.723-3.13c1.895,0,2.399,1.667,2.399,2.734
			c0,0.216-0.024,0.384-0.036,0.491H-143.144z M-140.05,316.527c0.012-0.672-0.276-1.716-1.463-1.716
			c-1.067,0-1.535,0.984-1.619,1.716H-140.05z"/>
		<path d="M-132.706,311.477v7.017c0,0.516,0.012,1.104,0.048,1.499h-0.947l-0.048-1.008h-0.024c-0.324,0.648-1.032,1.14-1.979,1.14
			c-1.403,0-2.483-1.188-2.483-2.95c-0.012-1.931,1.188-3.118,2.603-3.118c0.888,0,1.487,0.42,1.751,0.888h0.024v-3.467H-132.706z
			 M-133.761,316.55c0-0.132-0.012-0.312-0.048-0.443c-0.156-0.672-0.731-1.224-1.523-1.224c-1.091,0-1.739,0.96-1.739,2.243
			c0,1.175,0.576,2.146,1.715,2.146c0.708,0,1.355-0.468,1.547-1.259c0.036-0.145,0.048-0.288,0.048-0.456V316.55z"/>
		<path d="M-131.204,315.147c0-0.443,0.3-0.755,0.72-0.755s0.696,0.312,0.708,0.755c0,0.42-0.276,0.744-0.72,0.744
			C-130.916,315.891-131.204,315.567-131.204,315.147z M-131.204,319.381c0-0.444,0.3-0.756,0.72-0.756s0.696,0.312,0.708,0.756
			c0,0.42-0.276,0.743-0.72,0.743C-130.916,320.124-131.204,319.801-131.204,319.381z"/>
		<path d="M-120.92,318.781c0.3,0.191,0.996,0.491,1.727,0.491c1.355,0,1.775-0.863,1.763-1.511c-0.012-1.092-0.996-1.56-2.015-1.56
			h-0.587v-0.791h0.587c0.768,0,1.739-0.396,1.739-1.319c0-0.624-0.396-1.176-1.367-1.176c-0.624,0-1.224,0.276-1.559,0.516
			l-0.276-0.768c0.408-0.3,1.199-0.6,2.039-0.6c1.535,0,2.231,0.911,2.231,1.859c0,0.804-0.48,1.487-1.439,1.835v0.023
			c0.959,0.192,1.739,0.912,1.739,2.003c0,1.248-0.972,2.339-2.842,2.339c-0.875,0-1.643-0.275-2.027-0.527L-120.92,318.781z"/>
		<path d="M-111.754,319.992v-2.123h-3.622v-0.695l3.479-4.978h1.139v4.846h1.091v0.827h-1.091v2.123H-111.754z M-111.754,317.042
			v-2.603c0-0.408,0.012-0.815,0.036-1.224h-0.036c-0.24,0.456-0.432,0.792-0.647,1.151l-1.907,2.65v0.024H-111.754z"/>
	</g>
	<g>
	</g>
	<g>
	</g>
	<g>
	</g>
	<g>
	</g>
	<g>
	</g>
	<g>
	</g>
</g>
</svg>
