%YAML 1.1
%TAG !u! tag:unity3d.com,2011:
--- !u!114 &11400000
MonoBehaviour:
  m_ObjectHideFlags: 0
  m_PrefabParentObject: {fileID: 0}
  m_PrefabInternal: {fileID: 0}
  m_GameObject: {fileID: 0}
  m_Enabled: 1
  m_EditorHideFlags: 0
  m_Script: {fileID: 11500000, guid: afeb7fac87ec04eea8e21631d7b57ef5, type: 3}
  m_Name: MarsVuMark
  m_EditorClassIdentifier: 
  ID: Mars
  prefab: {fileID: 1101677475234114, guid: 583fca4d64592457aba87745423daf70, type: 2}
