%YAML 1.1
%TAG !u! tag:unity3d.com,2011:
--- !u!114 &11400000
MonoBehaviour:
  m_ObjectHideFlags: 0
  m_PrefabParentObject: {fileID: 0}
  m_PrefabInternal: {fileID: 0}
  m_GameObject: {fileID: 0}
  m_Enabled: 1
  m_EditorHideFlags: 0
  m_Script: {fileID: 11500000, guid: a5d7f1cc5c82d4598825fa47c96a7b51, type: 3}
  m_Name: Welcome
  m_EditorClassIdentifier: 
  target: {fileID: 11400000, guid: 70c8ea989f8984868b5a1e76ecc08732, type: 2}
  contentPrefab: {fileID: 1669978041058392, guid: 849b24cfdea234e6283bf2e968e9fef7,
    type: 2}
