%YAML 1.1
%TAG !u! tag:unity3d.com,2011:
--- !u!114 &11400000
MonoBehaviour:
  m_ObjectHideFlags: 0
  m_PrefabParentObject: {fileID: 0}
  m_PrefabInternal: {fileID: 0}
  m_GameObject: {fileID: 0}
  m_Enabled: 1
  m_EditorHideFlags: 0
  m_Script: {fileID: 11500000, guid: afeb7fac87ec04eea8e21631d7b57ef5, type: 3}
  m_Name: Oxygen
  m_EditorClassIdentifier: 
  ID: Oxygen
  prefab: {fileID: 1060531888680036, guid: 2ea344c716196404dac880b7615629ba, type: 2}
