%YAML 1.1
%TAG !u! tag:unity3d.com,2011:
--- !u!114 &11400000
MonoBehaviour:
  m_ObjectHideFlags: 0
  m_PrefabParentObject: {fileID: 0}
  m_PrefabInternal: {fileID: 0}
  m_GameObject: {fileID: 0}
  m_Enabled: 1
  m_EditorHideFlags: 0
  m_Script: {fileID: 11500000, guid: 776aaa86ec28f4d029dd478e76fcec6b, type: 3}
  m_Name: Books_0
  m_EditorClassIdentifier: 
  TitleText: Where are the books?
  BodyText: 'We have over 150,000 items in this Library, with collections on Level
    5 and Level 6 which include books, journals and audiovisual material.


    If an item you need is on loan, or at another Library site, you can place a hold
    on it.'
  URL: 
  Platform: 0
  gestures: 0b000000
