%YAML 1.1
%TAG !u! tag:unity3d.com,2011:
--- !u!114 &11400000
MonoBehaviour:
  m_ObjectHideFlags: 0
  m_PrefabParentObject: {fileID: 0}
  m_PrefabInternal: {fileID: 0}
  m_GameObject: {fileID: 0}
  m_Enabled: 1
  m_EditorHideFlags: 0
  m_Script: {fileID: 11500000, guid: 776aaa86ec28f4d029dd478e76fcec6b, type: 3}
  m_Name: Computers_1
  m_EditorClassIdentifier: 
  TitleText: Computers
  BodyText: Computers are located throughout the Library. They're very popular so
    we recommend you book one in advance. You can book either a PC or a Mac using
    BOOKIT.
  URL: http://www1.rmit.edu.au/browse;ID=8p72kxqfvizj
  Platform: 0
  gestures: 07000000
