%YAML 1.1
%TAG !u! tag:unity3d.com,2011:
--- !u!114 &11400000
MonoBehaviour:
  m_ObjectHideFlags: 0
  m_PrefabParentObject: {fileID: 0}
  m_PrefabInternal: {fileID: 0}
  m_GameObject: {fileID: 0}
  m_Enabled: 1
  m_EditorHideFlags: 0
  m_Script: {fileID: 11500000, guid: 776aaa86ec28f4d029dd478e76fcec6b, type: 3}
  m_Name: Computers_2
  m_EditorClassIdentifier: 
  TitleText: Tip
  BodyText: "Did you know? Subject guides are brilliant way to discover all the resources
    you\u2019ll need when doing your assignments."
  URL: http://rmit.libguides.com/
  Platform: 1
  gestures: 
