%YAML 1.1
%TAG !u! tag:unity3d.com,2011:
--- !u!114 &11400000
MonoBehaviour:
  m_ObjectHideFlags: 0
  m_PrefabParentObject: {fileID: 0}
  m_PrefabInternal: {fileID: 0}
  m_GameObject: {fileID: 0}
  m_Enabled: 1
  m_EditorHideFlags: 0
  m_Script: {fileID: 11500000, guid: 776aaa86ec28f4d029dd478e76fcec6b, type: 3}
  m_Name: Group Work-Balcony_0
  m_EditorClassIdentifier: 
  TitleText: 'Where can I do group work? '
  BodyText: "This is another of the Library\u2019s group work areas. These rocking
    chairs, and the deck chairs on the balcony to your left, are a great place to
    relax between classes."
  URL: 
  Platform: 0
  gestures: 13000000
