%YAML 1.1
%TAG !u! tag:unity3d.com,2011:
--- !u!114 &11400000
MonoBehaviour:
  m_ObjectHideFlags: 0
  m_PrefabParentObject: {fileID: 0}
  m_PrefabInternal: {fileID: 0}
  m_GameObject: {fileID: 0}
  m_Enabled: 1
  m_EditorHideFlags: 0
  m_Script: {fileID: 11500000, guid: 776aaa86ec28f4d029dd478e76fcec6b, type: 3}
  m_Name: Introduction_4
  m_EditorClassIdentifier: 
  TitleText: Opening hours
  BodyText: Wow, the Library is open every weekday from 8am to midnight. It is also
    open from 10am to 5pm on weekends and most public holidays, with extra opening
    hours at exam time.
  URL: http://www1.rmit.edu.au/browse;ID=6g8vd17991c61
  Platform: 0
  gestures: 08000000
