%YAML 1.1
%TAG !u! tag:unity3d.com,2011:
--- !u!114 &11400000
MonoBehaviour:
  m_ObjectHideFlags: 0
  m_PrefabParentObject: {fileID: 0}
  m_PrefabInternal: {fileID: 0}
  m_GameObject: {fileID: 0}
  m_Enabled: 1
  m_EditorHideFlags: 0
  m_Script: {fileID: 11500000, guid: 776aaa86ec28f4d029dd478e76fcec6b, type: 3}
  m_Name: Introduction_0
  m_EditorClassIdentifier: 
  TitleText: Welcome
  BodyText: To begin the tour look at the word Continue, then reach out with your
    index finger and tap downwards as if clicking a mouse.
  URL: 
  Platform: 2
  gestures: 16000000
