%YAML 1.1
%TAG !u! tag:unity3d.com,2011:
--- !u!114 &11400000
MonoBehaviour:
  m_ObjectHideFlags: 0
  m_PrefabParentObject: {fileID: 0}
  m_PrefabInternal: {fileID: 0}
  m_GameObject: {fileID: 0}
  m_Enabled: 1
  m_EditorHideFlags: 0
  m_Script: {fileID: 11500000, guid: 776aaa86ec28f4d029dd478e76fcec6b, type: 3}
  m_Name: Introduction_5
  m_EditorClassIdentifier: 
  TitleText: Where can I get help?
  BodyText: You can start by asking a librarian at one of the service desks. They
    are located on Levels 5 and 6. You can also use our online chat service to email
    a librarian.
  URL: http://www1.rmit.edu.au/browse;ID=0n2yedepkmk
  Platform: 0
  gestures: 05000000
