%YAML 1.1
%TAG !u! tag:unity3d.com,2011:
--- !u!114 &11400000
MonoBehaviour:
  m_ObjectHideFlags: 0
  m_PrefabParentObject: {fileID: 0}
  m_PrefabInternal: {fileID: 0}
  m_GameObject: {fileID: 0}
  m_Enabled: 1
  m_EditorHideFlags: 0
  m_Script: {fileID: 11500000, guid: 776aaa86ec28f4d029dd478e76fcec6b, type: 3}
  m_Name: Study And Learning Centre_2
  m_EditorClassIdentifier: 
  TitleText: What is the Study and Learning Centre Drop-in?
  BodyText: There's no need to make an appointment and you can get help throughout
    the semester, whenever you need it.
  URL: 
  Platform: 0
  gestures: 14000000
