%YAML 1.1
%TAG !u! tag:unity3d.com,2011:
--- !u!114 &11400000
MonoBehaviour:
  m_ObjectHideFlags: 0
  m_PrefabParentObject: {fileID: 0}
  m_PrefabInternal: {fileID: 0}
  m_GameObject: {fileID: 0}
  m_Enabled: 1
  m_EditorHideFlags: 0
  m_Script: {fileID: 11500000, guid: 776aaa86ec28f4d029dd478e76fcec6b, type: 3}
  m_Name: Study And Learning Centre_4
  m_EditorClassIdentifier: 
  Poster: {fileID: 11400000, guid: 1cb1d1b5118094d4fb1dce450f908e1b, type: 2}
  TitleText: Learning Lab
  BodyText: You can also get study help online with Learning Lab
  URL: https://emedia.rmit.edu.au/learninglab/welcome
  Platform: 1
  gestures: 
